Pyramid Counter Verilog/pyramidcount.vcd
$comment
Copyright (C) 1991-2010 Altera Corporation
Your use of Altera Corporation's design tools, logic functions 
and other software and tools, and its AMPP partner logic 
functions, and any output files from any of the foregoing 
(including device programming or simulation files), and any 
associated documentation or information are expressly subject 
to the terms and conditions of the Altera Program License 
Subscription Agreement, Altera MegaCore Function License 
Agreement, or other applicable license agreement, including, 
without limitation, that your use is for the sole purpose of 
programming logic devices manufactured by Altera and sold by 
Altera or its authorized distributors.  Please refer to the 
applicable agreement for further details.
$end

$date 
  11/16/2018 14:26:45 
$end
$version 
 QUARTUS_VCD_EXPORT 1.0 
$end
$timescale
  1 ps
$end
$scope module pyramidcount $end
$var reg 1 ! enable $end
$var reg 4 " out[3:0] $end
$var reg 1 # reset $end
$var reg 1 $ up $end
$var reg 1 % pulse1 $end
$var reg 1 & pulse2 $end
$upscope $end
$enddefinitions $end
#0
$dumpvars
1!
b0 "
0#
0$
0%
0&
$end
#100
0!
1#
#500
1$
#1000
0$
#1500
1$
#2000
0$
#2500
1$
#3000
0$
#3500
1$
#4000
0$
#4500
1$
#5000
0$
#5500
1$
#6000
0$
#6500
1$
#7000
0$
#7500
1$
#8000
0$
#8500
1$
#9000
0$
#9500
1$
#10000
0$
#10100
1!
0#
#10500
1$
#11000
b1 "
0$
#11500
1$
#12000
b10 "
0$
#12500
1$
#13000
b11 "
0$
#13500
1$
#14000
b100 "
0$
#14500
1$
#15000
b101 "
0$
#15500
1$
#16000
b110 "
0$
#16500
1$
#17000
b111 "
0$
#17500
1$
#18000
b1000 "
0$
#18500
1$
#19000
b1001 "
0$
#19500
1$
#20000
b1010 "
0$
#20500
1$
#21000
b1011 "
0$
#21500
1$
#22000
b1100 "
0$
#22500
1$
#23000
b1101 "
0$
#23500
1$
#24000
b1110 "
0$
#24500
1$
#25000
b1111 "
0$
#25500
1$
#26000
b0 "
0$
1%
#26500
1$
#27000
b1 "
0$
0%
#27500
1$
#28000
b10 "
0$
#28500
1$
#29000
b11 "
0$
#29500
1$
#30000
b100 "
0$
#30500
1$
#31000
b101 "
0$
#31500
1$
#32000
b110 "
0$
#32500
1$
#33000
b111 "
0$
#33500
1$
#34000
b1000 "
0$
#34500
1$
#35000
b1001 "
0$
#35500
1$
#36000
b1010 "
0$
#36500
1$
#37000
b1011 "
0$
#37500
1$
#38000
b1100 "
0$
#38500
1$
#39000
b1101 "
0$
#39500
1$
#40000
b1110 "
0$
#40500
1$
#41000
b0 "
0$
1%
#41500
1$
#42000
b1 "
0$
0%
#42500
1$
#43000
b10 "
0$
#43500
1$
#44000
b11 "
0$
#44500
1$
#45000
b100 "
0$
#45500
1$
#46000
b101 "
0$
#46500
1$
#47000
b110 "
0$
#47500
1$
#48000
b111 "
0$
#48500
1$
#49000
b1000 "
0$
#49500
1$
#50000
b1001 "
0$
#50500
1$
#51000
b1010 "
0$
#51500
1$
#52000
b1011 "
0$
#52500
1$
#53000
b1100 "
0$
#53500
1$
#54000
b1101 "
0$
#54500
1$
#55000
b0 "
0$
1%
#55500
1$
#56000
b1 "
0$
0%
#56500
1$
#57000
b10 "
0$
#57500
1$
#58000
b11 "
0$
#58500
1$
#59000
b100 "
0$
#59500
1$
#60000
b101 "
0$
#60500
1$
#61000
b110 "
0$
#61500
1$
#62000
b111 "
0$
#62500
1$
#63000
b1000 "
0$
#63500
1$
#64000
b1001 "
0$
#64500
1$
#65000
b1010 "
0$
#65500
1$
#66000
b1011 "
0$
#66500
1$
#67000
b1100 "
0$
#67500
1$
#68000
b0 "
0$
1%
#68500
1$
#69000
b1 "
0$
0%
#69500
1$
#70000
b10 "
0$
#70500
1$
#71000
b11 "
0$
#71500
1$
#72000
b100 "
0$
#72500
1$
#73000
b101 "
0$
#73500
1$
#74000
b110 "
0$
#74500
1$
#75000
b111 "
0$
#75500
1$
#76000
b1000 "
0$
#76500
1$
#77000
b1001 "
0$
#77500
1$
#78000
b1010 "
0$
#78500
1$
#79000
b1011 "
0$
#79500
1$
#80000
b0 "
0$
1%
#80500
1$
#81000
b1 "
0$
0%
#81500
1$
#82000
b10 "
0$
#82500
1$
#83000
b11 "
0$
#83500
1$
#84000
b100 "
0$
#84500
1$
#85000
b101 "
0$
#85500
1$
#86000
b110 "
0$
#86500
1$
#87000
b111 "
0$
#87500
1$
#88000
b1000 "
0$
#88500
1$
#89000
b1001 "
0$
#89500
1$
#90000
b1010 "
0$
#90500
1$
#91000
b0 "
0$
1%
#91500
1$
#92000
b1 "
0$
0%
#92500
1$
#93000
b10 "
0$
#93500
1$
#94000
b11 "
0$
#94500
1$
#95000
b100 "
0$
#95500
1$
#96000
b101 "
0$
#96500
1$
#97000
b110 "
0$
#97500
1$
#98000
b111 "
0$
#98500
1$
#99000
b1000 "
0$
#99500
1$
#100000
b1001 "
0$
#100500
1$
#101000
b0 "
0$
1%
#101500
1$
#102000
b1 "
0$
0%
#102500
1$
#103000
b10 "
0$
#103500
1$
#104000
b11 "
0$
#104500
1$
#105000
b100 "
0$
#105500
1$
#106000
b101 "
0$
#106500
1$
#107000
b110 "
0$
#107500
1$
#108000
b111 "
0$
#108500
1$
#109000
b1000 "
0$
#109500
1$
#110000
b0 "
0$
1%
#110500
1$
#111000
b1 "
0$
0%
#111500
1$
#112000
b10 "
0$
#112500
1$
#113000
b11 "
0$
#113500
1$
#114000
b100 "
0$
#114500
1$
#115000
b101 "
0$
#115500
1$
#116000
b110 "
0$
#116500
1$
#117000
b111 "
0$
#117500
1$
#118000
b0 "
0$
1%
#118500
1$
#119000
b1 "
0$
0%
#119500
1$
#120000
b10 "
0$
#120500
1$
#121000
b11 "
0$
#121500
1$
#122000
b100 "
0$
#122500
1$
#123000
b101 "
0$
#123500
1$
#124000
b110 "
0$
#124500
1$
#125000
b0 "
0$
1%
#125500
1$
#126000
b1 "
0$
0%
#126500
1$
#127000
b10 "
0$
#127500
1$
#128000
b11 "
0$
#128500
1$
#129000
b100 "
0$
#129500
1$
#130000
b101 "
0$
#130500
1$
#131000
b0 "
0$
1%
#131500
1$
#132000
b1 "
0$
0%
#132500
1$
#133000
b10 "
0$
#133500
1$
#134000
b11 "
0$
#134500
1$
#135000
b100 "
0$
#135500
1$
#136000
b0 "
0$
1%
#136500
1$
#137000
b1 "
0$
0%
#137500
1$
#138000
b10 "
0$
#138500
1$
#139000
b11 "
0$
#139500
1$
#140000
b0 "
0$
1%
#140500
1$
#141000
b1 "
0$
0%
#141500
1$
#142000
b10 "
0$
#142500
1$
#143000
b0 "
0$
1%
#143500
1$
#144000
b1 "
0$
0%
#144500
1$
#145000
b0 "
0$
1%
1&
#145500
1$
#146000
0$
0%
0&
#146500
1$
#147000
b1 "
0$
#147500
1$
#148000
b10 "
0$
#148500
1$
#149000
b11 "
0$
#149500
1$
#150000
b100 "
0$
#150500
1$
#151000
b101 "
0$
#151500
1$
#152000
b110 "
0$
#152500
1$
#153000
b111 "
0$
#153500
1$
#154000
b1000 "
0$
#154500
1$
#155000
b1001 "
0$
#155500
1$
#156000
b1010 "
0$
#156500
1$
#157000
b1011 "
0$
#157500
1$
#158000
b1100 "
0$
#158500
1$
#159000
b1101 "
0$
#159500
1$
#160000
b1110 "
0$
#160500
1$
#161000
b1111 "
0$
#161500
1$
#162000
b0 "
0$
1%
#162500
1$
#163000
b1 "
0$
0%
#163500
1$
#164000
b10 "
0$
#164500
1$
#165000
b11 "
0$
#165500
1$
#166000
b100 "
0$
#166500
1$
#167000
b101 "
0$
#167500
1$
#168000
b110 "
0$
#168500
1$
#169000
b111 "
0$
#169500
1$
#170000
b1000 "
0$
#170500
1$
#171000
b1001 "
0$
#171500
1$
#172000
b1010 "
0$
#172500
1$
#173000
b1011 "
0$
#173500
1$
#174000
b1100 "
0$
#174500
1$
#175000
b1101 "
0$
#175500
1$
#176000
b1110 "
0$
#176500
1$
#177000
b0 "
0$
1%
#177500
1$
#178000
b1 "
0$
0%
#178500
1$
#179000
b10 "
0$
#179500
1$
#180000
b11 "
0$
#180500
1$
#181000
b100 "
0$
#181500
1$
#182000
b101 "
0$
#182500
1$
#183000
b110 "
0$
#183500
1$
#184000
b111 "
0$
#184500
1$
#185000
b1000 "
0$
#185500
1$
#186000
b1001 "
0$
#186500
1$
#187000
b1010 "
0$
#187500
1$
#188000
b1011 "
0$
#188500
1$
#189000
b1100 "
0$
#189500
1$
#190000
b1101 "
0$
#190500
1$
#191000
b0 "
0$
1%
#191500
1$
#192000
b1 "
0$
0%
#192500
1$
#193000
b10 "
0$
#193500
1$
#194000
b11 "
0$
#194500
1$
#195000
b100 "
0$
#195500
1$
#196000
b101 "
0$
#196500
1$
#197000
b110 "
0$
#197500
1$
#198000
b111 "
0$
#198500
1$
#199000
b1000 "
0$
#199500
1$
#200000
b1001 "
0$
#200500
1$
#201000
b1010 "
0$
#201500
1$
#202000
b1011 "
0$
#202500
1$
#203000
b1100 "
0$
#203500
1$
#204000
b0 "
0$
1%
#204500
1$
#205000
b1 "
0$
0%
#205500
1$
#206000
b10 "
0$
#206500
1$
#207000
b11 "
0$
#207500
1$
#208000
b100 "
0$
#208500
1$
#209000
b101 "
0$
#209500
1$
#210000
b110 "
0$
#210500
1$
#211000
b111 "
0$
#211500
1$
#212000
b1000 "
0$
#212500
1$
#213000
b1001 "
0$
#213500
1$
#214000
b1010 "
0$
#214500
1$
#215000
b1011 "
0$
#215500
1$
#216000
b0 "
0$
1%
#216500
1$
#217000
b1 "
0$
0%
#217500
1$
#218000
b10 "
0$
#218500
1$
#219000
b11 "
0$
#219500
1$
#220000
b100 "
0$
#220500
1$
#221000
b101 "
0$
#221500
1$
#222000
b110 "
0$
#222500
1$
#223000
b111 "
0$
#223500
1$
#224000
b1000 "
0$
#224500
1$
#225000
b1001 "
0$
#225500
1$
#226000
b1010 "
0$
#226500
1$
#227000
b0 "
0$
1%
#227500
1$
#228000
b1 "
0$
0%
#228500
1$
#229000
b10 "
0$
#229500
1$
#230000
b11 "
0$
#230500
1$
#231000
b100 "
0$
#231500
1$
#232000
b101 "
0$
#232500
1$
#233000
b110 "
0$
#233500
1$
#234000
b111 "
0$
#234500
1$
#235000
b1000 "
0$
#235500
1$
#236000
b1001 "
0$
#236500
1$
#237000
b0 "
0$
1%
#237500
1$
#238000
b1 "
0$
0%
#238500
1$
#239000
b10 "
0$
#239500
1$
#240000
b11 "
0$
#240500
1$
#241000
b100 "
0$
#241500
1$
#242000
b101 "
0$
#242500
1$
#243000
b110 "
0$
#243500
1$
#244000
b111 "
0$
#244500
1$
#245000
b1000 "
0$
#245500
1$
#246000
b0 "
0$
1%
#246500
1$
#247000
b1 "
0$
0%
#247500
1$
#248000
b10 "
0$
#248500
1$
#249000
b11 "
0$
#249500
1$
#250000
b100 "
0$
#250500
1$
#251000
b101 "
0$
#251500
1$
#252000
b110 "
0$
#252500
1$
#253000
b111 "
0$
#253500
1$
#254000
b0 "
0$
1%
#254500
1$
#255000
b1 "
0$
0%
#255500
1$
#256000
b10 "
0$
#256500
1$
#257000
b11 "
0$
#257500
1$
#258000
b100 "
0$
#258500
1$
#259000
b101 "
0$
#259500
1$
#260000
b110 "
0$
#260500
1$
#261000
b0 "
0$
1%
#261500
1$
#262000
b1 "
0$
0%
#262500
1$
#263000
b10 "
0$
#263500
1$
#264000
b11 "
0$
#264500
1$
#265000
b100 "
0$
#265500
1$
#266000
b101 "
0$
#266500
1$
#267000
b0 "
0$
1%
#267500
1$
#268000
b1 "
0$
0%
#268500
1$
#269000
b10 "
0$
#269500
1$
#270000
b11 "
0$
#270500
1$
#271000
b100 "
0$
#271500
1$
#272000
b0 "
0$
1%
#272500
1$
#273000
b1 "
0$
0%
#273500
1$
#274000
b10 "
0$
#274500
1$
#275000
b11 "
0$
#275500
1$
#276000
b0 "
0$
1%
#276500
1$
#277000
b1 "
0$
0%
#277500
1$
#278000
b10 "
0$
#278500
1$
#279000
b0 "
0$
1%
#279500
1$
#280000
b1 "
0$
0%
#280500
1$
#281000
b0 "
0$
1%
1&
#281500
1$
#282000
0$
0%
0&
#282500
1$
#283000
b1 "
0$
#283500
1$
#284000
b10 "
0$
#284500
1$
#285000
b11 "
0$
#285500
1$
#286000
b100 "
0$
#286500
1$
#287000
b101 "
0$
#287500
1$
#288000
b110 "
0$
#288500
1$
#289000
b111 "
0$
#289500
1$
#290000
b1000 "
0$
#290500
1$
#291000
b1001 "
0$
#291500
1$
#292000
b1010 "
0$
#292500
1$
#293000
b1011 "
0$
#293500
1$
#294000
b1100 "
0$
#294500
1$
#295000
b1101 "
0$
#295500
1$
#296000
b1110 "
0$
#296500
1$
#297000
b1111 "
0$
#297500
1$
#298000
b0 "
0$
1%
#298500
1$
#299000
b1 "
0$
0%
#299500
1$
#300000
b10 "
0$
#300500
1$
#301000
b11 "
0$
#301500
1$
#302000
b100 "
0$
#302500
1$
#303000
b101 "
0$
#303500
1$
#304000
b110 "
0$
#304500
1$
#305000
b111 "
0$
#305500
1$
#306000
b1000 "
0$
#306500
1$
#307000
b1001 "
0$
#307500
1$
#308000
b1010 "
0$
#308500
1$
#309000
b1011 "
0$
#309500
1$
#310000
0!
b0 "
1#
0$
#310100
1!
0#
#310500
1$
#311000
b1 "
0$
#311500
1$
#312000
b10 "
0$
#312500
1$
#313000
b11 "
0$
#313500
1$
#314000
b100 "
0$
#314500
1$
#315000
b101 "
0$
#315500
1$
#316000
b110 "
0$
#316500
1$
#317000
b111 "
0$
#317500
1$
#318000
b1000 "
0$
#318500
1$
#319000
b1001 "
0$
#319500
1$
#320000
0!
b0 "
1#
0$
#320100
1!
0#
#320500
1$
#321000
b1 "
0$
#321500
1$
#322000
b10 "
0$
#322500
1$
#323000
b11 "
0$
#323500
1$
#324000
b100 "
0$
#324500
1$
#325000
b101 "
0$
#325500
1$
#326000
b110 "
0$
#326500
1$
#327000
b111 "
0$
#327500
1$
#328000
b1000 "
0$
#328500
1$
#329000
b1001 "
0$
#329500
1$
#330000
0!
b0 "
1#
0$
#330100
1!
0#
#330500
1$
#331000
b1 "
0$
#331500
1$
#332000
b10 "
0$
#332500
1$
#333000
b11 "
0$
#333500
1$
#334000
b100 "
0$
#334500
1$
#335000
b101 "
0$
#335500
1$
#336000
b110 "
0$
#336500
1$
#337000
b111 "
0$
#337500
1$
#338000
b1000 "
0$
#338500
1$
#339000
b1001 "
0$
#339500
1$
#340000
0!
b0 "
1#
0$
#340100
1!
0#
#340500
1$
#341000
b1 "
0$
#341500
1$
#342000
b10 "
0$
#342500
1$
#343000
b11 "
0$
#343500
1$
#344000
b100 "
0$
#344500
1$
#345000
b101 "
0$
#345500
1$
#346000
b110 "
0$
#346500
1$
#347000
b111 "
0$
#347500
1$
#348000
b1000 "
0$
#348500
1$
#349000
b1001 "
0$
#349500
1$
#350000
0!
b0 "
1#
0$
#350100
1!
0#
#350500
1$
#351000
b1 "
0$
#351500
1$
#352000
b10 "
0$
#352500
1$
#353000
b11 "
0$
#353500
1$
#354000
b100 "
0$
#354500
1$
#355000
b101 "
0$
#355500
1$
#356000
b110 "
0$
#356500
1$
#357000
b111 "
0$
#357500
1$
#358000
b1000 "
0$
#358500
1$
#359000
b1001 "
0$
#359500
1$
#360000
0!
b0 "
1#
0$
#360100
1!
0#
#360500
1$
#361000
b1 "
0$
#361500
1$
#362000
b10 "
0$
#362500
1$
#363000
b11 "
0$
#363500
1$
#364000
b100 "
0$
#364500
1$
#365000
b101 "
0$
#365500
1$
#366000
b110 "
0$
#366500
1$
#367000
b111 "
0$
#367500
1$
#368000
b1000 "
0$
#368500
1$
#369000
b1001 "
0$
#369500
1$
#370000
0!
b0 "
1#
0$
#370100
1!
0#
#370500
1$
#371000
b1 "
0$
#371500
1$
#372000
b10 "
0$
#372500
1$
#373000
b11 "
0$
#373500
1$
#374000
b100 "
0$
#374500
1$
#375000
b101 "
0$
#375500
1$
#376000
b110 "
0$
#376500
1$
#377000
b111 "
0$
#377500
1$
#378000
b1000 "
0$
#378500
1$
#379000
b1001 "
0$
#379500
1$
#380000
0!
b0 "
1#
0$
#380100
1!
0#
#380500
1$
#381000
b1 "
0$
#381500
1$
#382000
b10 "
0$
#382500
1$
#383000
b11 "
0$
#383500
1$
#384000
b100 "
0$
#384500
1$
#385000
b101 "
0$
#385500
1$
#386000
b110 "
0$
#386500
1$
#387000
b111 "
0$
#387500
1$
#388000
b1000 "
0$
#388500
1$
#389000
b1001 "
0$
#389500
1$
#390000
0!
b0 "
1#
0$
#390100
1!
0#
#390500
1$
#391000
b1 "
0$
#391500
1$
#392000
b10 "
0$
#392500
1$
#393000
b11 "
0$
#393500
1$
#394000
b100 "
0$
#394500
1$
#395000
b101 "
0$
#395500
1$
#396000
b110 "
0$
#396500
1$
#397000
b111 "
0$
#397500
1$
#398000
b1000 "
0$
#398500
1$
#399000
b1001 "
0$
#399500
1$
#400000
0!
b0 "
1#
0$
#400100
1!
0#
#400500
1$
#401000
b1 "
0$
#401500
1$
#402000
b10 "
0$
#402500
1$
#403000
b11 "
0$
#403500
1$
#404000
b100 "
0$
#404500
1$
#405000
b101 "
0$
#405500
1$
#406000
b110 "
0$
#406500
1$
#407000
b111 "
0$
#407500
1$
#408000
b1000 "
0$
#408500
1$
#409000
b1001 "
0$
#409500
1$
#410000
0!
b0 "
1#
0$
#410100
1!
0#
#410500
1$
#411000
b1 "
0$
#411500
1$
#412000
b10 "
0$
#412500
1$
#413000
b11 "
0$
#413500
1$
#414000
b100 "
0$
#414500
1$
#415000
b101 "
0$
#415500
1$
#416000
b110 "
0$
#416500
1$
#417000
b111 "
0$
#417500
1$
#418000
b1000 "
0$
#418500
1$
#419000
b1001 "
0$
#419500
1$
#420000
0!
b0 "
1#
0$
#420100
1!
0#
#420500
1$
#421000
b1 "
0$
#421500
1$
#422000
b10 "
0$
#422500
1$
#423000
b11 "
0$
#423500
1$
#424000
b100 "
0$
#424500
1$
#425000
b101 "
0$
#425500
1$
#426000
b110 "
0$
#426500
1$
#427000
b111 "
0$
#427500
1$
#428000
b1000 "
0$
#428500
1$
#429000
b1001 "
0$
#429500
1$
#430000
0!
b0 "
1#
0$
#430100
1!
0#
#430500
1$
#431000
b1 "
0$
#431500
1$
#432000
b10 "
0$
#432500
1$
#433000
b11 "
0$
#433500
1$
#434000
b100 "
0$
#434500
1$
#435000
b101 "
0$
#435500
1$
#436000
b110 "
0$
#436500
1$
#437000
b111 "
0$
#437500
1$
#438000
b1000 "
0$
#438500
1$
#439000
b1001 "
0$
#439500
1$
#440000
0!
b0 "
1#
0$
#440100
1!
0#
#440500
1$
#441000
b1 "
0$
#441500
1$
#442000
b10 "
0$
#442500
1$
#443000
b11 "
0$
#443500
1$
#444000
b100 "
0$
#444500
1$
#445000
b101 "
0$
#445500
1$
#446000
b110 "
0$
#446500
1$
#447000
b111 "
0$
#447500
1$
#448000
b1000 "
0$
#448500
1$
#449000
b1001 "
0$
#449500
1$
#450000
0!
b0 "
1#
0$
#450100
1!
0#
#450500
1$
#451000
b1 "
0$
#451500
1$
#452000
b10 "
0$
#452500
1$
#453000
b11 "
0$
#453500
1$
#454000
b100 "
0$
#454500
1$
#455000
b101 "
0$
#455500
1$
#456000
b110 "
0$
#456500
1$
#457000
b111 "
0$
#457500
1$
#458000
b1000 "
0$
#458500
1$
#459000
b1001 "
0$
#459500
1$
#460000
0!
b0 "
1#
0$
#460100
1!
0#
#460500
1$
#461000
b1 "
0$
#461500
1$
#462000
b10 "
0$
#462500
1$
#463000
b11 "
0$
#463500
1$
#464000
b100 "
0$
#464500
1$
#465000
b101 "
0$
#465500
1$
#466000
b110 "
0$
#466500
1$
#467000
b111 "
0$
#467500
1$
#468000
b1000 "
0$
#468500
1$
#469000
b1001 "
0$
#469500
1$
#470000
0!
b0 "
1#
0$
#470100
1!
0#
#470500
1$
#471000
b1 "
0$
#471500
1$
#472000
b10 "
0$
#472500
1$
#473000
b11 "
0$
#473500
1$
#474000
b100 "
0$
#474500
1$
#475000
b101 "
0$
#475500
1$
#476000
b110 "
0$
#476500
1$
#477000
b111 "
0$
#477500
1$
#478000
b1000 "
0$
#478500
1$
#479000
b1001 "
0$
#479500
1$
#480000
0!
b0 "
1#
0$
#480100
1!
0#
#480500
1$
#481000
b1 "
0$
#481500
1$
#482000
b10 "
0$
#482500
1$
#483000
b11 "
0$
#483500
1$
#484000
b100 "
0$
#484500
1$
#485000
b101 "
0$
#485500
1$
#486000
b110 "
0$
#486500
1$
#487000
b111 "
0$
#487500
1$
#488000
b1000 "
0$
#488500
1$
#489000
b1001 "
0$
#489500
1$
#490000
0!
b0 "
1#
0$
#490100
1!
0#
#490500
1$
#491000
b1 "
0$
#491500
1$
#492000
b10 "
0$
#492500
1$
#493000
b11 "
0$
#493500
1$
#494000
b100 "
0$
#494500
1$
#495000
b101 "
0$
#495500
1$
#496000
b110 "
0$
#496500
1$
#497000
b111 "
0$
#497500
1$
#498000
b1000 "
0$
#498500
1$
#499000
b1001 "
0$
#499500
1$
#500000
0!
b0 "
1#
0$
#500100
1!
0#
#500500
1$
#501000
b1 "
0$
#501500
1$
#502000
b10 "
0$
#502500
1$
#503000
b11 "
0$
#503500
1$
#504000
b100 "
0$
#504500
1$
#505000
b101 "
0$
#505500
1$
#506000
b110 "
0$
#506500
1$
#507000
b111 "
0$
#507500
1$
#508000
b1000 "
0$
#508500
1$
#509000
b1001 "
0$
#509500
1$
#510000
0!
b0 "
1#
0$
#510100
1!
0#
#510500
1$
#511000
b1 "
0$
#511500
1$
#512000
b10 "
0$
#512500
1$
#513000
b11 "
0$
#513500
1$
#514000
b100 "
0$
#514500
1$
#515000
b101 "
0$
#515500
1$
#516000
b110 "
0$
#516500
1$
#517000
b111 "
0$
#517500
1$
#518000
b1000 "
0$
#518500
1$
#519000
b1001 "
0$
#519500
1$
#520000
0!
b0 "
1#
0$
#520100
1!
0#
#520500
1$
#521000
b1 "
0$
#521500
1$
#522000
b10 "
0$
#522500
1$
#523000
b11 "
0$
#523500
1$
#524000
b100 "
0$
#524500
1$
#525000
b101 "
0$
#525500
1$
#526000
b110 "
0$
#526500
1$
#527000
b111 "
0$
#527500
1$
#528000
b1000 "
0$
#528500
1$
#529000
b1001 "
0$
#529500
1$
#530000
0!
b0 "
1#
0$
#530100
1!
0#
#530500
1$
#531000
b1 "
0$
#531500
1$
#532000
b10 "
0$
#532500
1$
#533000
b11 "
0$
#533500
1$
#534000
b100 "
0$
#534500
1$
#535000
b101 "
0$
#535500
1$
#536000
b110 "
0$
#536500
1$
#537000
b111 "
0$
#537500
1$
#538000
b1000 "
0$
#538500
1$
#539000
b1001 "
0$
#539500
1$
#540000
0!
b0 "
1#
0$
#540100
1!
0#
#540500
1$
#541000
b1 "
0$
#541500
1$
#542000
b10 "
0$
#542500
1$
#543000
b11 "
0$
#543500
1$
#544000
b100 "
0$
#544500
1$
#545000
b101 "
0$
#545500
1$
#546000
b110 "
0$
#546500
1$
#547000
b111 "
0$
#547500
1$
#548000
b1000 "
0$
#548500
1$
#549000
b1001 "
0$
#549500
1$
#550000
0!
b0 "
1#
0$
#550100
1!
0#
#550500
1$
#551000
b1 "
0$
#551500
1$
#552000
b10 "
0$
#552500
1$
#553000
b11 "
0$
#553500
1$
#554000
b100 "
0$
#554500
1$
#555000
b101 "
0$
#555500
1$
#556000
b110 "
0$
#556500
1$
#557000
b111 "
0$
#557500
1$
#558000
b1000 "
0$
#558500
1$
#559000
b1001 "
0$
#559500
1$
#560000
0!
b0 "
1#
0$
#560100
1!
0#
#560500
1$
#561000
b1 "
0$
#561500
1$
#562000
b10 "
0$
#562500
1$
#563000
b11 "
0$
#563500
1$
#564000
b100 "
0$
#564500
1$
#565000
b101 "
0$
#565500
1$
#566000
b110 "
0$
#566500
1$
#567000
b111 "
0$
#567500
1$
#568000
b1000 "
0$
#568500
1$
#569000
b1001 "
0$
#569500
1$
#570000
0!
b0 "
1#
0$
#570100
1!
0#
#570500
1$
#571000
b1 "
0$
#571500
1$
#572000
b10 "
0$
#572500
1$
#573000
b11 "
0$
#573500
1$
#574000
b100 "
0$
#574500
1$
#575000
b101 "
0$
#575500
1$
#576000
b110 "
0$
#576500
1$
#577000
b111 "
0$
#577500
1$
#578000
b1000 "
0$
#578500
1$
#579000
b1001 "
0$
#579500
1$
#580000
0!
b0 "
1#
0$
#580100
1!
0#
#580500
1$
#581000
b1 "
0$
#581500
1$
#582000
b10 "
0$
#582500
1$
#583000
b11 "
0$
#583500
1$
#584000
b100 "
0$
#584500
1$
#585000
b101 "
0$
#585500
1$
#586000
b110 "
0$
#586500
1$
#587000
b111 "
0$
#587500
1$
#588000
b1000 "
0$
#588500
1$
#589000
b1001 "
0$
#589500
1$
#590000
0!
b0 "
1#
0$
#590100
1!
0#
#590500
1$
#591000
b1 "
0$
#591500
1$
#592000
b10 "
0$
#592500
1$
#593000
b11 "
0$
#593500
1$
#594000
b100 "
0$
#594500
1$
#595000
b101 "
0$
#595500
1$
#596000
b110 "
0$
#596500
1$
#597000
b111 "
0$
#597500
1$
#598000
b1000 "
0$
#598500
1$
#599000
b1001 "
0$
#599500
1$
#600000
0!
b0 "
1#
0$
#600100
1!
0#
#600500
1$
#601000
b1 "
0$
#601500
1$
#602000
b10 "
0$
#602500
1$
#603000
b11 "
0$
#603500
1$
#604000
b100 "
0$
#604500
1$
#605000
b101 "
0$
#605500
1$
#606000
b110 "
0$
#606500
1$
#607000
b111 "
0$
#607500
1$
#608000
b1000 "
0$
#608500
1$
#609000
b1001 "
0$
#609500
1$
#610000
0!
b0 "
1#
0$
#610100
1!
0#
#610500
1$
#611000
b1 "
0$
#611500
1$
#612000
b10 "
0$
#612500
1$
#613000
b11 "
0$
#613500
1$
#614000
b100 "
0$
#614500
1$
#615000
b101 "
0$
#615500
1$
#616000
b110 "
0$
#616500
1$
#617000
b111 "
0$
#617500
1$
#618000
b1000 "
0$
#618500
1$
#619000
b1001 "
0$
#619500
1$
#620000
0!
b0 "
1#
0$
#620100
1!
0#
#620500
1$
#621000
b1 "
0$
#621500
1$
#622000
b10 "
0$
#622500
1$
#623000
b11 "
0$
#623500
1$
#624000
b100 "
0$
#624500
1$
#625000
b101 "
0$
#625500
1$
#626000
b110 "
0$
#626500
1$
#627000
b111 "
0$
#627500
1$
#628000
b1000 "
0$
#628500
1$
#629000
b1001 "
0$
#629500
1$
#630000
0!
b0 "
1#
0$
#630100
1!
0#
#630500
1$
#631000
b1 "
0$
#631500
1$
#632000
b10 "
0$
#632500
1$
#633000
b11 "
0$
#633500
1$
#634000
b100 "
0$
#634500
1$
#635000
b101 "
0$
#635500
1$
#636000
b110 "
0$
#636500
1$
#637000
b111 "
0$
#637500
1$
#638000
b1000 "
0$
#638500
1$
#639000
b1001 "
0$
#639500
1$
#640000
0!
b0 "
1#
0$
#640100
1!
0#
#640500
1$
#641000
b1 "
0$
#641500
1$
#642000
b10 "
0$
#642500
1$
#643000
b11 "
0$
#643500
1$
#644000
b100 "
0$
#644500
1$
#645000
b101 "
0$
#645500
1$
#646000
b110 "
0$
#646500
1$
#647000
b111 "
0$
#647500
1$
#648000
b1000 "
0$
#648500
1$
#649000
b1001 "
0$
#649500
1$
#650000
0!
b0 "
1#
0$
#650100
1!
0#
#650500
1$
#651000
b1 "
0$
#651500
1$
#652000
b10 "
0$
#652500
1$
#653000
b11 "
0$
#653500
1$
#654000
b100 "
0$
#654500
1$
#655000
b101 "
0$
#655500
1$
#656000
b110 "
0$
#656500
1$
#657000
b111 "
0$
#657500
1$
#658000
b1000 "
0$
#658500
1$
#659000
b1001 "
0$
#659500
1$
#660000
0!
b0 "
1#
0$
#660100
1!
0#
#660500
1$
#661000
b1 "
0$
#661500
1$
#662000
b10 "
0$
#662500
1$
#663000
b11 "
0$
#663500
1$
#664000
b100 "
0$
#664500
1$
#665000
b101 "
0$
#665500
1$
#666000
b110 "
0$
#666500
1$
#667000
b111 "
0$
#667500
1$
#668000
b1000 "
0$
#668500
1$
#669000
b1001 "
0$
#669500
1$
#670000
0!
b0 "
1#
0$
#670100
1!
0#
#670500
1$
#671000
b1 "
0$
#671500
1$
#672000
b10 "
0$
#672500
1$
#673000
b11 "
0$
#673500
1$
#674000
b100 "
0$
#674500
1$
#675000
b101 "
0$
#675500
1$
#676000
b110 "
0$
#676500
1$
#677000
b111 "
0$
#677500
1$
#678000
b1000 "
0$
#678500
1$
#679000
b1001 "
0$
#679500
1$
#680000
0!
b0 "
1#
0$
#680100
1!
0#
#680500
1$
#681000
b1 "
0$
#681500
1$
#682000
b10 "
0$
#682500
1$
#683000
b11 "
0$
#683500
1$
#684000
b100 "
0$
#684500
1$
#685000
b101 "
0$
#685500
1$
#686000
b110 "
0$
#686500
1$
#687000
b111 "
0$
#687500
1$
#688000
b1000 "
0$
#688500
1$
#689000
b1001 "
0$
#689500
1$
#690000
0!
b0 "
1#
0$
#690100
1!
0#
#690500
1$
#691000
b1 "
0$
#691500
1$
#692000
b10 "
0$
#692500
1$
#693000
b11 "
0$
#693500
1$
#694000
b100 "
0$
#694500
1$
#695000
b101 "
0$
#695500
1$
#696000
b110 "
0$
#696500
1$
#697000
b111 "
0$
#697500
1$
#698000
b1000 "
0$
#698500
1$
#699000
b1001 "
0$
#699500
1$
#700000
0!
b0 "
1#
0$
#700100
1!
0#
#700500
1$
#701000
b1 "
0$
#701500
1$
#702000
b10 "
0$
#702500
1$
#703000
b11 "
0$
#703500
1$
#704000
b100 "
0$
#704500
1$
#705000
b101 "
0$
#705500
1$
#706000
b110 "
0$
#706500
1$
#707000
b111 "
0$
#707500
1$
#708000
b1000 "
0$
#708500
1$
#709000
b1001 "
0$
#709500
1$
#710000
0!
b0 "
1#
0$
#710100
1!
0#
#710500
1$
#711000
b1 "
0$
#711500
1$
#712000
b10 "
0$
#712500
1$
