Clock Divider Verilog/clockdivider.vcd
$comment
Copyright (C) 1991-2010 Altera Corporation
Your use of Altera Corporation's design tools, logic functions 
and other software and tools, and its AMPP partner logic 
functions, and any output files from any of the foregoing 
(including device programming or simulation files), and any 
associated documentation or information are expressly subject 
to the terms and conditions of the Altera Program License 
Subscription Agreement, Altera MegaCore Function License 
Agreement, or other applicable license agreement, including, 
without limitation, that your use is for the sole purpose of 
programming logic devices manufactured by Altera and sold by 
Altera or its authorized distributors.  Please refer to the 
applicable agreement for further details.
$end

$date 
  11/15/2018 23:21:55 
$end
$version 
 QUARTUS_VCD_EXPORT 1.0 
$end
$timescale
  1 ps
$end
$scope module clockdivider $end
$var reg 1 ! clk $end
$var reg 1 " rst $end
$var reg 1 # out_clk $end
$var reg 1 $ out_clk1 $end
$var reg 1 % P1 $end
$var reg 1 & P2 $end
$var reg 1 ' P3 $end
$var reg 1 ( P4 $end
$var reg 1 ) P23 $end
$var reg 1 * en $end
$upscope $end
$enddefinitions $end
#0
$dumpvars
0!
1"
0#
0$
0%
0&
0'
0(
0)
0*
$end
#5000
1!
#10000
0!
#15000
1!
#20000
0!
#25000
1!
#30000
0!
0"
1#
1%
1*
#35000
1!
0%
1&
1)
#40000
0!
0#
0&
1'
#45000
1!
0'
1(
0)
#50000
0!
1#
1%
0(
#55000
1!
0%
1&
1)
#60000
0!
0#
0&
1'
#65000
1!
0'
1(
0)
#70000
0!
1#
1%
0(
#75000
1!
0%
1&
1)
#80000
0!
0#
0&
1'
#85000
1!
0'
1(
0)
#90000
0!
1#
1%
0(
#95000
1!
0%
1&
1)
#100000
0!
0#
0&
1'
#105000
1!
0'
1(
0)
#110000
0!
1#
1%
0(
#115000
1!
0%
1&
1)
#120000
0!
0#
0&
1'
#125000
1!
0'
1(
0)
#130000
0!
1#
1%
0(
#135000
1!
0%
1&
1)
#140000
0!
0#
0&
1'
#145000
1!
0'
1(
0)
#150000
0!
1#
1%
0(
#155000
1!
0%
1&
1)
#160000
0!
0#
0&
1'
#165000
1!
0'
1(
0)
#170000
0!
1#
1%
0(
#175000
1!
0%
1&
1)
#180000
0!
0#
0&
1'
#185000
1!
0'
1(
0)
#190000
0!
1#
1%
0(
#195000
1!
0%
1&
1)
#200000
0!
0#
0&
1'
#205000
1!
0'
1(
0)
#210000
0!
1#
1%
0(
#215000
1!
0%
1&
1)
#220000
0!
0#
0&
1'
#225000
1!
0'
1(
0)
#230000
0!
1#
1%
0(
#235000
1!
0%
1&
1)
#240000
0!
0#
0&
1'
#245000
1!
0'
1(
0)
#250000
0!
1#
1%
0(
#255000
1!
0%
1&
1)
#260000
0!
0#
0&
1'
#265000
1!
0'
1(
0)
#270000
0!
1#
1%
0(
#275000
1!
0%
1&
1)
#280000
0!
0#
0&
1'
#285000
1!
0'
1(
0)
#290000
0!
1#
1%
0(
#295000
1!
0%
1&
1)
#300000
0!
0#
0&
1'
#305000
1!
0'
1(
0)
#310000
0!
1#
1%
0(
#315000
1!
0%
1&
1)
#320000
0!
0#
0&
1'
#325000
1!
0'
1(
0)
#330000
0!
1#
1%
0(
#335000
1!
0%
1&
1)
#340000
0!
0#
0&
1'
#345000
1!
0'
1(
0)
#350000
0!
1#
1%
0(
#355000
1!
0%
1&
1)
#360000
0!
0#
0&
1'
#365000
1!
0'
1(
0)
#370000
0!
1#
1%
0(
#375000
1!
0%
1&
1)
#380000
0!
0#
0&
1'
#385000
1!
0'
1(
0)
#390000
0!
1#
1%
0(
#395000
1!
0%
1&
1)
#400000
0!
0#
0&
1'
#405000
1!
0'
1(
0)
#410000
0!
1#
1%
0(
#415000
1!
0%
1&
1)
#420000
0!
0#
0&
1'
#425000
1!
0'
1(
0)
#430000
0!
1#
1%
0(
#435000
1!
0%
1&
1)
#440000
0!
0#
0&
1'
#445000
1!
0'
1(
0)
#450000
0!
1#
1%
0(
#455000
1!
0%
1&
1)
#460000
0!
0#
0&
1'
#465000
1!
0'
1(
0)
#470000
0!
1#
1%
0(
#475000
1!
0%
1&
1)
#480000
0!
0#
0&
1'
#485000
1!
0'
1(
0)
#490000
0!
1#
1%
0(
#495000
1!
0%
1&
1)
#500000
0!
0#
0&
1'
#505000
1!
0'
1(
0)
#510000
0!
1#
1%
0(
#515000
1!
0%
1&
1)
#520000
0!
0#
0&
1'
#525000
1!
0'
1(
0)
#530000
0!
1#
1%
0(
#535000
1!
0%
1&
1)
#540000
0!
0#
0&
1'
#545000
1!
0'
1(
0)
#550000
0!
1#
1%
0(
#555000
1!
0%
1&
1)
#560000
0!
0#
0&
1'
#565000
1!
0'
1(
0)
#570000
0!
1#
1%
0(
#575000
1!
0%
1&
1)
#580000
0!
0#
0&
1'
#585000
1!
0'
1(
0)
#590000
0!
1#
1%
0(
#595000
1!
0%
1&
1)
#600000
0!
0#
0&
1'
#605000
1!
0'
1(
0)
#610000
0!
1#
1%
0(
#615000
1!
0%
1&
1)
#620000
0!
0#
0&
1'
#625000
1!
0'
1(
0)
#630000
0!
1#
1%
0(
#635000
1!
0%
1&
1)
#640000
0!
0#
0&
1'
#645000
1!
0'
1(
0)
#650000
0!
1#
1%
0(
#655000
1!
0%
1&
1)
#660000
0!
0#
0&
1'
#665000
1!
0'
1(
0)
#670000
0!
1#
1%
0(
#675000
1!
0%
1&
1)
#680000
0!
0#
0&
1'
#685000
1!
0'
1(
0)
#690000
0!
1#
1%
0(
#695000
1!
0%
1&
1)
#700000
0!
0#
0&
1'
#705000
1!
0'
1(
0)
#710000
0!
1#
1%
0(
#715000
1!
0%
1&
1)
#720000
0!
0#
0&
1'
#725000
1!
0'
1(
0)
#730000
0!
1#
1%
0(
#735000
1!
0%
1&
1)
#740000
0!
0#
0&
1'
#745000
1!
0'
1(
0)
#750000
0!
1#
1%
0(
#755000
1!
0%
1&
1)
#760000
0!
0#
0&
1'
#765000
1!
0'
1(
0)
#770000
0!
1#
1%
0(
#775000
1!
0%
1&
1)
#780000
0!
0#
0&
1'
#785000
1!
0'
1(
0)
#790000
0!
1#
1%
0(
#795000
1!
0%
1&
1)
#800000
0!
0#
0&
1'
#805000
1!
0'
1(
0)
#810000
0!
1#
1%
0(
#815000
1!
0%
1&
1)
#820000
0!
0#
0&
1'
#825000
1!
0'
1(
0)
#830000
0!
1#
1%
0(
#835000
1!
0%
1&
1)
#840000
0!
0#
0&
1'
#845000
1!
0'
1(
0)
#850000
0!
1#
1%
0(
#855000
1!
0%
1&
1)
#860000
0!
0#
0&
1'
#865000
1!
0'
1(
0)
#870000
0!
1#
1%
0(
#875000
1!
0%
1&
1)
#880000
0!
0#
0&
1'
#885000
1!
0'
1(
0)
#890000
0!
1#
1%
0(
#895000
1!
0%
1&
1)
#900000
0!
1"
0#
0&
1'
#905000
1!
0'
1(
0)
#910000
0!
1'
0(
1)
#915000
1!
0'
1(
0)
#920000
0!
1'
0(
1)
#925000
1!
0'
1(
0)
#930000
0!
0"
1#
1%
0(
#935000
1!
0%
1&
1)
#940000
0!
0#
0&
1'
#945000
1!
0'
1(
0)
#950000
0!
1#
1%
0(
#955000
1!
0%
1&
1)
#960000
0!
0#
0&
1'
#965000
1!
0'
1(
0)
#970000
0!
1#
1%
0(
#975000
1!
0%
1&
1)
#980000
0!
0#
0&
1'
#985000
1!
0'
1(
0)
#990000
0!
1#
1%
0(
#995000
1!
0%
1&
1)
